#config.tx_extbase
plugin.tx_teufelsextdlc {
  persistence {
    classes{
      TEUFELS\TeufelsExtDlc\Domain\Model\Page {
        mapping {
          tableName = pages
          columns {

          }
        }
      }
    }
  }
}